…
*The sell of pink lady apples increases from Monday to Wednesday and
reach a peak on Wednesday, it decreases on Thurday and remains a steady
low level from Thurday to Sunday. On Wednesday, people would like to buy
pink lady apples while on other days of the week, they do not.*

### Question 2

**Step 1: Data Clean**

    ## # A tibble: 10,625 x 23
    ##     year location_abbr location_desc class topic question response
    ##    <int> <chr>         <chr>         <chr> <chr> <chr>    <fct>   
    ##  1  2010 AL            " Jefferson ~ Heal~ Over~ How is ~ Excelle~
    ##  2  2010 AL            " Jefferson ~ Heal~ Over~ How is ~ Very go~
    ##  3  2010 AL            " Jefferson ~ Heal~ Over~ How is ~ Good    
    ##  4  2010 AL            " Jefferson ~ Heal~ Over~ How is ~ Fair    
    ##  5  2010 AL            " Jefferson ~ Heal~ Over~ How is ~ Poor    
    ##  6  2010 AL            " Mobile Cou~ Heal~ Over~ How is ~ Excelle~
    ##  7  2010 AL            " Mobile Cou~ Heal~ Over~ How is ~ Very go~
    ##  8  2010 AL            " Mobile Cou~ Heal~ Over~ How is ~ Good    
    ##  9  2010 AL            " Mobile Cou~ Heal~ Over~ How is ~ Fair    
    ## 10  2010 AL            " Mobile Cou~ Heal~ Over~ How is ~ Poor    
    ## # ... with 10,615 more rows, and 16 more variables: sample_size <int>,
    ## #   data_value <dbl>, confidence_limit_low <dbl>,
    ## #   confidence_limit_high <dbl>, display_order <int>,
    ## #   data_value_unit <chr>, data_value_type <chr>,
    ## #   data_value_footnote_symbol <chr>, data_value_footnote <chr>,
    ## #   data_source <chr>, class_id <chr>, topic_id <chr>, location_id <chr>,
    ## #   question_id <chr>, resp_id <chr>, geo_location <chr>

**Step 2: find out states that were observed at 7 or more locations**

*In 2002, state including CT, FL, MA, NC, NJ, PA were observed at 7 or
more locations.* *In 2010, state including CA, CO, FL, MA, MD, NC, NE,
NJ, NY, OH, PA, SC, TX, WA were observed at 7 or more locations.* *The
number of observed states in 2010 is greater than that of 2006.*

**Step 3.1: summarize average of data value across locations within a
state over year**

    ## # A tibble: 443 x 3
    ## # Groups:   year [9]
    ##     year location_abbr mean_data_value
    ##    <int> <chr>                   <dbl>
    ##  1  2002 AK                       27.9
    ##  2  2002 AL                       18.5
    ##  3  2002 AR                       24.1
    ##  4  2002 AZ                       24.1
    ##  5  2002 CA                       22.7
    ##  6  2002 CO                       23.1
    ##  7  2002 CT                       29.1
    ##  8  2002 DC                       29.3
    ##  9  2002 DE                       20.9
    ## 10  2002 FL                       25.7
    ## # ... with 433 more rows
…
### Question 3

**Step 1: tidy and wrangle the data**

    ## Parsed with column specification:
    ## cols(
    ##   .default = col_double(),
    ##   day = col_character()
    ## )

    ## See spec(...) for full column specifications.

    ## # A tibble: 50,400 x 6
    ##     week day_id day    minute activity_count weekday_weekend
    ##    <dbl>  <dbl> <fct>   <dbl>          <dbl> <chr>          
    ##  1     1      2 Monday      1              1 Weekday        
    ##  2     1      2 Monday      2              1 Weekday        
    ##  3     1      2 Monday      3              1 Weekday        
    ##  4     1      2 Monday      4              1 Weekday        
    ##  5     1      2 Monday      5              1 Weekday        
    ##  6     1      2 Monday      6              1 Weekday        
    ##  7     1      2 Monday      7              1 Weekday        
    ##  8     1      2 Monday      8              1 Weekday        
    ##  9     1      2 Monday      9              1 Weekday        
    ## 10     1      2 Monday     10              1 Weekday        
    ## # ... with 50,390 more rows

*There is 50400 observation of 6 variable in accel dataset above. Each
observation represents a record of activity counts for each minute of a
24-hour day starting at midnight. We recorded five weeks of
accelerometer data from a 63 year-old male.*

*As for variable: Week means the week that activity counts is recorded.
Day means which day of the week that activity counts is recorded. Minute
means the minute of day that activity counts is recorded. Day\_id means
id of the day. Activity\_value means the activity counts value.*

**Step 2: Make a table showing the total activity variable for each
day**

    ## # A tibble: 35 x 4
    ##     week day       day_id sum_act
    ##    <dbl> <fct>      <dbl>   <dbl>
    ##  1     1 Monday         2  78828.
    ##  2     1 Tuesday        6 307094.
    ##  3     1 Wednesday      7 340115.
    ##  4     1 Thursday       5 355924.
    ##  5     1 Friday         1 480543.
    ##  6     1 Saturday       3 376254 
    ##  7     1 Sunday         4 631105 
    ##  8     2 Monday         9 295431 
    ##  9     2 Tuesday       13 423245 
    ## 10     2 Wednesday     14 440962 
    ## # ... with 25 more rows
…
